

Batch Job Summary Report (version 21.01.1) for Job "axpy" (38748849) on daint

Job information (1/2)
-----------------------------------------------------------------------------------------------------
             Submit            Eligible               Start                 End    Elapsed Time limit
------------------- ------------------- ------------------- ------------------- ---------- ----------
2022-05-26T14:17:29 2022-05-26T14:17:29 2022-05-26T14:17:30 2022-05-26T14:17:40   00:00:10   00:20:00
-----------------------------------------------------------------------------------------------------

Job information (2/2)
-------------------------------------------------------------
    Username      Account    Partition   NNodes        Energy
------------ ------------ ------------ -------- -------------
    mwoolley         uzg2        debug        1      0.620 kJ

