-9.627421369782478, 1.551924512648137
-9.605032823829118, 1.5045074011593007
-9.58758720360572, 1.445419843967879
-9.570141583382322, 1.3863322867764571
-9.552695963158925, 1.3270677450320463
-9.544554673721338, 1.5501862715026906
-9.535250342935527, 1.2681571723936136
-9.52710905349794, 1.4912756988642597
-9.517804722712128, 1.2088926306492
-9.509663433274541, 1.4323651262258297
-9.50035910248873, 1.1499820580107691
-9.492217813051145, 1.3734545535873979
-9.482913482265332, 1.0907175162663556
-9.48058739956888, 1.5483321476142136
-9.474772192827746, 1.3145439809489678
-9.467139733980009, 1.0294329276150371
-9.46314177934548, 1.4894215749757826
-9.457326572604348, 1.255633408310536
-9.44969411375661, 0.9700245859213199
-9.445696159122082, 1.4305110023373526
-9.437457949572144, 1.1979799878540653
-9.434065745639817, 0.905591673837777
-9.423266075977713, 1.3733522155805664
-9.417450869236582, 1.1365300280069022
-9.425342935528118, 1.5381028618431278
-9.415893224573779, 0.8402885877020285
-9.405820455754316, 1.3045810749897804
-9.400005249013184, 1.0677588874161161
-9.40789731530472, 1.46790952395152
-9.397357253086417, 0.7786916423842696
-9.386649444519811, 1.2441910003973824
-9.382559628789785, 1.0046765360286125
-9.380565843621397, 0.7084730209850925
-9.365114008566387, 0.941594184641108
-9.378821281599055, 1.3799018480177843
-9.361375661375659, 0.644246590880039
-9.354591253511003, 1.145874892669931
-9.348000685871053, 0.8740715677336661
-9.362344862499182, 1.316594754340768
-9.34393004115226, 0.5778694824123018
-9.33022276811959, 0.805568913913743
-9.344345413062342, 1.2394640032311557
-9.333268828793518, 1.181243710481941
-9.324739858906522, 1.0716200402150422
-9.32590290025475, 0.5129135177659006
-9.313109445424258, 0.7381979980517226
-9.307294238683125, 1.0042142090330444
-9.30156210632401, 0.45260211841042874
-9.29360613666169, 0.6729652519306253
-9.290762436661904, 0.9314747617302963
-9.28370111419053, 0.3921624955522791
-9.311946404076032, 1.1399192219978538
-9.278218204977462, 0.6037403047937087
-9.27240299823633, 0.8690485775630652
-9.267968903096214, 0.3315949501855915
-9.259194171495755, 0.5342407583895916
-9.255871196215109, 0.796966501457141
-9.277055163629235, 1.0061694669518015
-9.237511757789534, 0.733882946093086
-9.226656705206086, 0.4607761158776498
-9.21973384003807, 0.6688694163178415
-9.242163923182439, 0.8724197119057502
-9.208103426555805, 0.3901608845363107
-9.204001628943756, 0.5988679621890451
-9.206825359140172, 0.32247100750186597
-9.193316186556924, 0.5211053742186262
-9.15105901757136, 0.46979390024433343
-9.147182213077272, 0.3702752051696354
-9.138174343811595, 0.5901863617159098
-9.142142367234957, 0.31839063835708536
-9.116813911206911, 0.522486602872922
-9.098152038593213, 0.6611735273819619
-9.0858374831414, 0.45593093651845606
-9.080168878250886, 0.7277799889562733
-9.07726127488032, 0.37423227476712206
-9.081830365891209, 0.3138739203261611
-9.069076004887549, 0.5713179244978779
-9.06272325802749, 0.7868169791325554
-9.046683511961287, 0.8520502809351393
-9.030102717355803, 0.6411486588830417
-9.027832017580693, 0.9060287173257748
-9.022478335184093, 0.5019062959239289
-9.030635777973739, 0.4312383069990027
-9.011978656345939, 0.7086738844063447
-9.010386397357294, 0.9669619705698178
-9.037662486119274, 0.3625286193780042
-8.997925240054867, 0.5703955722266194
-8.997030592863924, 0.7709680170428914
-8.992940777133896, 1.026378213359651
-8.977087415899142, 0.8297818856673249
-8.975495156910497, 1.0869322139901412
-8.968849206349205, 0.6353706210590211
-8.960919378974932, 0.8951595453809569
-8.9580495366871, 1.1463484567799753
-8.992110033313734, 0.4988137483776178
-8.952989551600659, 0.7105439701051566
-8.942196175452345, 0.9491200413983947
-8.9406039164637, 1.2065232047969134
-8.974664413090338, 0.5620225173029727
-8.927658158599515, 1.018165086654525
-8.923158296240304, 1.2655601949731947
-8.921985481435371, 0.808794508738063
-8.935896368149452, 0.7476175092609108
-8.905712676016906, 1.326114195603684
-8.899066725455612, 0.885571349760153
-8.897249473349007, 1.1182754860383293
-8.893251518714479, 1.0494674736656693
-8.88826705579351, 1.3912192275968005
-8.882590306355738, 0.9398704915456522
-8.877098166655777, 1.1886695702979129
-8.870821435570111, 1.4529109860679474
-8.862589519533962, 0.9960867105995872
-8.857676136298139, 1.2660492219193342
-8.853375815346713, 1.5142234919255415
-8.831361104112423, 1.112336119215379
-8.845276063100135, 1.0573685697813389
-8.82928424456202, 1.35423908783409
-8.816200029394471, 1.1759903594645893
-8.811838624338622, 1.4121383201697162
-8.79778520804755, 1.2907177866623822
-8.801265521172926, 1.2329970073662988
-8.794393004115225, 1.5284424549923683
-8.794393004115225, 1.4700375525053406
-8.765316970409561, 1.3523849639456138
-8.747871350186163, 1.4102841962812391
-8.741692693023708, 1.2806851503946186
-8.730425729962764, 1.5265883311038912
-8.730425729962764, 1.4681834286168636
-8.712149365919206, 1.2249320062610787
-8.7013496962571, 1.3505308400571359
-8.693745195134081, 1.1691735368466398
-8.683904076033702, 1.408430072392762
-8.681220134460872, 1.1104055891227071
-8.672273662551438, 1.2912831539844376
-8.666458455810305, 1.5247342072154142
-8.666458455810305, 1.4663293047283865
-8.65882599696257, 1.063412908309827
-8.638213165924803, 1.2307532328849655
-8.641380376739171, 0.992058109289216
-8.631954895812918, 1.3492273347779653
-8.622620743454075, 1.1664993196997973
-8.626582752442538, 0.9311858073580659
-8.618483000195962, 1.4136131914446404
-8.60090521618299, 1.285353022208894
-8.609396739662941, 0.8665228605047561
-8.622844405251811, 1.499577117183124
-8.631567215363509, 1.465317964425581
-8.591544910145124, 1.0968628958710518
-8.592650062557468, 0.8076453103962438
-8.574245891772344, 1.026378213359651
-8.575741230648635, 0.7511600095993494
-8.580393396041542, 1.3374676944792308
-8.565782689104445, 1.2234864819145832
-8.556800271548946, 0.9640543671992505
-8.558295610425239, 0.6888867304540902
-8.544339114246519, 1.15005790853348
-8.53935465132555, 0.9009720158117478
-8.54084999020184, 0.6259055130968676
-8.52689349402312, 1.086368752964293
-8.521909031102151, 0.8386481696513473
-8.523404369978442, 0.5636322339516067
-8.509447873799722, 1.0237415047130511
-8.504463410878753, 0.7755658182638427
-8.505958749755045, 0.500651016594384
-8.492002253576326, 0.9611142564618085
-8.487017790655354, 0.7136212247169951
-8.488513129531647, 0.4390856756610866
-8.474556633352927, 0.8995489155285128
-8.469572170431956, 0.6512973785565954
-8.471067509308249, 0.3764584274098439
-8.457111013129529, 0.836921667277271
-8.452126550208558, 0.58821502716909
-8.45300616131226, 0.3135947039995646
-8.439665392906132, 0.7742944190260301
-8.43468092998516, 0.5262704336222424
-8.422219772682734, 0.7116671707747884
-8.417235309761761, 0.462429577007633
-8.404774152459336, 0.6479780152056005
-8.399789689538364, 0.4008642360743373
-8.387328532235937, 0.5869436279312783
-8.392852978640011, 0.31459179134467163
-8.366490708080212, 0.5253684545228161
-8.349045087856815, 0.4633606522070419
-8.335822415385906, 0.402044133094277
-8.32917646482461, 0.3075210286026149
-8.3111493239271, 0.5754438459047915
-8.290546877187086, 0.6548310497336587
-8.28539137877373, 0.48332636060328227
-8.272813691795172, 0.7168937255960817
-8.273738160559146, 0.401180079256207
-8.263270788425107, 0.32238402791385745
-8.257067901234565, 0.7826295486883197
-8.249701972695798, 0.28836366383892376
-8.243240631872316, 0.5821182236902054
-8.238210016516893, 0.8493876404859018
-8.221110539551896, 0.6512381830428389
-8.219850578091316, 0.9164130150777972
-8.220625938990134, 0.49061065481041766
-8.204373181687993, 0.723895312307814
-8.207057123260824, 0.408273507768941
-8.20303121090158, 0.980347874476962
-8.220625938990134, 0.3428285530629367
-8.186968227246002, 0.7872909080839792
-8.185873155846698, 1.0439442312381466
-8.170227480566984, 0.8501983180302153
-8.1684275356233, 1.1086700106177094
-8.16954903978052, 0.5704103209393683
-8.161020069893524, 0.6552484282713262
-8.152781860343588, 0.914734471103003
-8.173827370454353, 0.48305971520831825
-8.150068097197725, 1.1763274728988584
-8.143089849108366, 0.7225274097187633
-8.13533624012019, 0.9797130855582683
-8.132290179446262, 1.2433949866700367
-8.123705826637924, 0.7895600390411577
-8.11789061989679, 1.0451341613960103
-8.11580310978459, 1.305377088717127
-8.106260206414525, 0.8518838852015573
-8.09899119798811, 1.0906023358429824
-8.1314594356261, 0.6074906917499465
-8.097731236527531, 1.3702014089467065
-8.118375220458551, 0.665295110932183
-8.088069046865341, 0.910850643412366
-8.083847430433076, 1.1823059689597146
-8.079953318776068, 1.4334005460596542
-8.09462979293226, 0.7396040420004848
-8.069915164282447, 0.9667552879285708
-8.064099957541314, 1.2550715525867568
-8.06250769855267, 1.4931960414630412
-8.075633450911226, 0.8094047832051006
-8.04423133450911, 1.0978643210728505
-8.041808331700304, 1.0354070341780526
-8.038416127767977, 1.3313153743038288
-8.05295414462081, 0.8731255431587508
-8.026785714285712, 1.1557635534084758
-8.020970507544579, 1.3892146066394542
-8.028966416813637, 0.9726477498317223
-8.041323731138544, 0.9225653352531991
-8.009340094062313, 1.2720676882311297
-8.009340094062313, 1.2136627857441011
-8.00352488732118, 1.5055187414621072
-8.00352488732118, 1.4471138389750795
-7.9925406079212635, 1.0898766055330986
-8.006432490691747, 1.0383637999244497
-7.9744488536155185, 1.3294612504153518
-7.9744488536155185, 1.1584183217033406
-7.95700323339212, 1.3873604827509771
-7.944925496314383, 1.267341617200711
-7.962818440133253, 1.2123143320070264
-7.939557613168722, 1.5036646175736301
-7.939557613168722, 1.4452597150866024
-7.919204389574757, 1.3344968823397387
-7.9017587693513605, 1.3923961146753632
-7.87434422328602, 1.4964648377988938
-7.893035959239661, 1.4439112613495277
-7.765101410934742, 0.723294902672917
-7.758870832283527, 0.6394201498813832
-7.750757234306615, 0.8125539845368923
-7.753023673857005, 0.5737858312737494
-7.731760892285582, 0.8835051253359483
-7.7310409143081085, 0.5216140543114065
-7.710527932287189, 0.4712644495521534
-7.701497587203603, 0.933621602417726
-7.693934357007548, 0.7130092033035904
-7.69531893004115, 0.6282346604609046
-7.686372458131716, 0.7979176429323998
-7.673350371241316, 0.4141303854762537
-7.661881491279637, 0.8704181008897818
-7.670240850970016, 0.5683486615929212
-7.663164257472534, 1.0009293360691274
-7.643369749820364, 0.4983024596689791
-7.628734812855182, 0.6796413945192743
-7.623210366451104, 0.7978839315889719
-7.625536449147559, 0.735298822517013
-7.622305778735818, 0.35867054340804216
-7.617104399372916, 0.9224810568946324
-7.606706255890558, 1.0459929980023608
-7.603567890347723, 0.586290002439279
-7.596848095891303, 0.4176649261919376
-7.579402475667905, 0.4939705520386273
-7.562253316964643, 0.6828677683872453
-7.572670933319079, 0.853093151952514
-7.561569174995098, 0.7580616409991023
-7.561569174995098, 0.7175160888593481
-7.557498530276305, 0.32064297748979165
-7.5543693952203625, 0.9624310054830421
-7.584830001959629, 0.9146431695478885
-7.542738981738099, 1.08433965115041
-7.536369945783525, 1.0176594165031227
-7.570291985106797, 0.574411436012344
-7.5328808217388445, 0.38961708846079546
-7.535400744660002, 0.4751736687995365
-7.511558397021359, 0.4325372472004201
-7.502032534550169, 0.6817840714544658
-7.497601900842639, 0.7581382576887084
-7.492658975112677, 0.28464979750473063
-7.494278925561991, 0.9863520129230157
-7.476483518466948, 1.1141034300578143
-7.480156280619241, 1.0366246010703826
-7.470787336425195, 0.3703548013971716
-7.439449833431313, 0.6807917941137163
-7.43363462669018, 0.7562841338002322
-7.43189006466784, 0.2801008731010697
-7.411666067890346, 1.1305596420658697
-7.416189006466782, 1.0605941324137733
-7.436542230060747, 1.0337916989721831
-7.410373799725649, 0.36849642102593805
-7.375482559278854, 0.6789376702252401
-7.369667352537721, 0.7544300099117542
-7.36911352332428, 0.3101827288836798
-7.348195819955077, 1.1499807614206388
-7.3548385753478325, 1.072439647252109
-7.347237269393352, 0.25449379683285756
-7.311515285126394, 0.6770835463367622
-7.305700078385261, 0.7525758860232781
-7.305700078385261, 0.3490511052038112
-7.288254458161864, 1.1584911075584667
-7.290871301195374, 1.078151613003996
-7.288254458161864, 0.2649202337641636
-7.247548010973935, 0.675229422448286
-7.241732804232802, 0.7507217621348001
-7.238060042080509, 0.3286468710243984
-7.233300754458162, 1.064669182592218
-7.224287184009404, 1.1503620767912182
-7.224287184009404, 0.24605145853132626
-7.183580736821476, 0.673375298559808
-7.177765530080343, 0.748867638246324
-7.1763809570467405, 0.3412573636639369
-7.1732425915039055, 0.2620290178522069
-7.169333480305701, 1.10489313617735
-7.170011921092167, 1.0119959108074106
-7.116996619635508, 0.9764782012286002
-7.119613462669015, 0.6715211746713319
-7.113798255927884, 0.7470135143578478
-7.113798255927884, 0.3809209664959763
-7.111375253119078, 0.29718128710401004
-7.119084807510731, 0.2543452151812282
-7.1079830491867515, 1.1146510377656336
-7.1079830491867515, 1.056246135278605
-7.061170634920632, 0.8949515310686769
-7.054115870953101, 0.99567015775557
-7.055899023592257, 0.6879691956286464
-7.054261615482954, 0.4542746425024706
-7.047407978966618, 0.769070565434177
-7.04702364059005, 0.32599080260966495
-7.044015775034291, 1.0780435834716524
-7.064368998628256, 0.26904987333395347
-7.006507691553987, 0.8442538844726135
-6.989062071330588, 1.0046271729900251
-6.991678914364098, 0.9220673267707582
-6.99229104138948, 0.6757251122677523
-6.991678914364098, 0.4939256035807258
-6.991678914364098, 0.4355207010936972
-6.981709988522155, 0.7541831947188093
-6.982190945470672, 0.35839713159859876
-7.009124534587496, 0.3209864118009538
-6.941484498282742, 0.8470918473047853
-6.936434450323338, 0.9794742968756616
-6.929650042458682, 0.9310493566822924
-6.927099513186256, 0.6739752274017139
-6.927711640211639, 0.49207147969224785
-6.9246330013486865, 0.4179610572087089
-6.918019628976417, 0.7593911959527411
-6.9466110621203185, 0.36850887123799936
-6.884768575046351, 0.8714796840601942
-6.877959315870836, 0.8044819906385738
-6.863744366059178, 0.6789472473114397
-6.875822103136915, 0.4766809548277564
-6.8535677542621976, 0.7587176714038577
-6.625320889672739, 1.4655707995012834
-6.625320889672739, 1.4071658970142558
-6.625320889672739, 1.348760994527228
-6.625320889672739, 1.2903560920401995
-6.625320889672739, 1.2319511895531718
-6.625320889672739, 1.1735462870661433
-6.625320889672739, 1.1151413845791156
-6.625320889672739, 1.056736482092087
-6.625320889672739, 0.9983315796050594
-6.625320889672739, 0.9399266771180308
-6.625320889672739, 0.8815217746310031
-6.625320889672739, 0.8231168721439746
-6.625320889672739, 0.7647119696569469
-6.625320889672739, 0.7063070671699183
-6.625320889672739, 0.6479021646828897
-6.625320889672739, 0.589497262195863
-6.625320889672739, 0.5310923597088344
-6.625320889672739, 0.47268745722180583
-6.625320889672739, 0.41428255473477904
-6.625320889672739, 0.3558776522477505
-6.625320889672739, 0.2722524509595061
-6.5613536155202805, 1.4637166756128064
-6.5613536155202805, 1.4053117731257787
-6.5613536155202805, 1.346906870638751
-6.5613536155202805, 1.2885019681517225
-6.5613536155202805, 1.2300970656646948
-6.5613536155202805, 1.1716921631776662
-6.5613536155202805, 1.1132872606906385
-6.5613536155202805, 1.05488235820361
-6.5613536155202805, 0.9964774557165823
-6.5613536155202805, 0.9380725532295537
-6.5613536155202805, 0.8796676507425261
-6.5613536155202805, 0.8212627482554975
-6.5613536155202805, 0.7628578457684698
-6.5613536155202805, 0.7044529432814404
-6.5613536155202805, 0.6460480407944136
-6.5613536155202805, 0.587643138307385
-6.5613536155202805, 0.5292382358203565
-6.5613536155202805, 0.4708333333333279
-6.5613536155202805, 0.4124284308463011
-6.5613536155202805, 0.35402352835927253
-6.5613536155202805, 0.2703983270710282
-6.497386341367822, 1.4618625517243293
-6.497386341367822, 1.4034576492373017
-6.497386341367822, 1.345052746750274
-6.497386341367822, 1.2866478442632454
-6.497386341367822, 1.2282429417762177
-6.497386341367822, 1.1698380392891892
-6.497386341367822, 1.1114331368021615
-6.497386341367822, 1.053028234315133
-6.497386341367822, 0.9946233318281053
-6.497386341367822, 0.9362184293410767
-6.497386341367822, 0.877813526854049
-6.497386341367822, 0.8194086243670204
-6.497386341367822, 0.7610037218799928
-6.497386341367822, 0.7025988193929642
-6.497386341367822, 0.6441939169059356
-6.497386341367822, 0.5857890144189088
-6.497386341367822, 0.5273841119318803
-6.497386341367822, 0.4689792094448517
-6.497386341367822, 0.41057430695782493
-6.497386341367822, 0.35216940447079637
-6.497386341367822, 0.268544203182552
-6.450864687438759, 1.4605140979872546
-6.450864687438759, 1.402109195500227
-6.450864687438759, 1.3437042930131993
-6.450864687438759, 1.2852993905261707
-6.450864687438759, 1.226894488039143
-6.450864687438759, 1.1684895855521145
-6.450864687438759, 1.1100846830650868
-6.450864687438759, 1.0516797805780582
-6.450864687438759, 0.9932748780910305
-6.450864687438759, 0.934869975604002
-6.450864687438759, 0.8764650731169743
-6.450864687438759, 0.8180601706299457
-6.450864687438759, 0.7596552681429181
-6.450864687438759, 0.7012503656558895
-6.450864687438759, 0.6428454631688627
-6.450864687438759, 0.5844405606818341
-6.450864687438759, 0.5260356581948056
-6.450864687438759, 0.467630755707777
-6.450864687438759, 0.4092258532207502
-6.450864687438759, 0.35082095073372166
-6.450864687438759, 0.2671957494454773
-6.206044483637076, 0.6986672339658071
-6.209049007119994, 0.6157043201119681
-6.197679532401754, 0.5601521860378504
-6.190841871728113, 0.7794245631096679
-6.187838413301375, 0.5018704596133432
-6.173285485662028, 0.8503668747473503
-6.1645775863368435, 0.44565031149840095
-6.143046410608138, 0.8972762091258195
-6.141786449147558, 0.6697260456338512
-6.13878192566464, 0.40354268257470594
-6.126666911620614, 0.7565633058629864
-6.131351383717638, 0.566920026361931
-6.109948192239857, 0.9638143243744048
-6.103890685217843, 0.8456121706848538
-6.104666046116662, 0.49617864503308695
-6.096821218199212, 0.3422766124401644
-6.076074612972759, 0.6394153339751814
-6.073263929714544, 0.4188111118684521
-6.0656764694904, 0.7629019915753386
-6.059307433535828, 0.6969802621551544
-6.054046056008136, 1.0052865508144322
-6.054046056008136, 0.8884767458403768
-6.048230849267004, 0.5421769704879971
-6.0426371742112455, 0.29651197647305594
-6.032169802077208, 0.6392046380787608
-6.0138519008426385, 0.44726489036002803
-6.0147241818538095, 0.365692250186342
-6.005419851067998, 0.8210773358666499
-6.023446991965509, 0.7386383524752382
-6.0292621987066415, 0.6996490768431141
-5.990078781855676, 1.041610523356871
-5.991463354889278, 0.9572726956449404
-5.991463354889278, 0.899109135730173
-5.994370958259845, 0.8765072122962589
-6.008908975112677, 0.5397730306412498
-5.980414462081127, 0.2961685421618956
-5.966910259760052, 0.2424015245681268
-5.962387321183616, 0.4200977614759118
-5.950110773619002, 0.37347310066415673
-5.92487923770331, 1.0674946145631816
-5.9274960807368196, 0.9867931061503219
-5.931521993096066, 0.9394210069666284
-5.905527521936985, 0.3229201319169661
-5.915034923434392, 0.24104537875864374
-5.893767881638251, 0.20857172322617323
-5.859005868007923, 1.0855549985910171
-5.863528806584361, 1.0136587483608377
-5.885820432425369, 0.9764543223603397
-5.846083186360962, 0.32315466411681726
-5.846083186360962, 0.26474976162979047
-5.823653103216593, 0.21621035245373577
-5.799561532431902, 1.112444477104967
-5.799561532431902, 1.0286986045305913
-5.7821159122085035, 0.3068199858927141
-5.761956528839242, 0.2547492405244203
-5.7564320824351665, 0.19950266952469597
-5.734209685245839, 1.0877950638516634
-5.738017261088247, 1.0106643127420512
-5.695571953061057, 0.2873890920356903
-5.6981588648834, 0.21269135474088507
-5.671626984126982, 1.1082535441834924
-5.673011557160585, 1.0257200395117954
-5.635351170646583, 0.29911818438036697
-5.625880691096739, 0.20691284420171208
-5.609355811940688, 1.001846689476963
-5.607659709974524, 1.097228402549118
-5.5701516264942175, 0.34307998349932944
-5.572768469527727, 0.26117176222516747
-5.568891665033638, 0.21486240037355664
-5.545834880410903, 1.0464057296129896
-5.554638707334785, 0.9524618435672672
-5.551446044810239, 1.082244731951743
-5.510943639964106, 0.9066478147417172
-5.513231829082798, 0.4126411333703057
-5.507056633352928, 0.30196057235442275
-5.502985988634135, 0.2340494541044702
-5.4829235253772275, 1.0207032698867078
-5.480088612090926, 0.841191946357922
-5.480088612090926, 0.4879418401224598
-5.479725161669604, 1.0500784917652837
-5.4455180631923525, 0.9347757821444276
-5.450649127963942, 0.3908531710531147
-5.43970285645122, 0.3157338870420201
-5.4632487425697285, 0.26998395847473944
-5.421320259182577, 0.8402748466653076
-5.421573094258278, 0.5068201924414986
-5.421573094258278, 0.44841528995447
-5.415757887517145, 1.009126871170615
-5.382805049317392, 0.939308635821873
-5.381550789039894, 0.37307787372120416
-5.4024659863945566, 0.3162608038384409
-5.3556674178587755, 0.8520524419186932
-5.357605820105819, 0.5049660685530224
-5.352178293814095, 0.4343688968599473
-5.336525695669213, 0.8139674028420298
-5.340160199882421, 0.9252411731377075
-5.351790613364686, 0.38798770686183204
-5.309145763929713, 0.49087753627921416
-5.3227145796590225, 0.44554982576318736
-5.3081765628061905, 0.8592722879692785
-5.299453752694491, 0.8094637780560987
-5.117797770685776, 0.6717128076056937
-5.1216053465281846, 0.5866177516114863
-5.110944134169442, 0.5329921343748687
-5.1035260178778685, 0.7500086375623098
-5.097710811136736, 0.48354639957565126
-5.085841825070219, 0.8170769231133308
-5.07349143361048, 0.4208803462340356
-5.0555785199882415, 0.8665518311905149
-5.054342788555749, 0.6350202175759048
-5.045523058331698, 0.37503974170729926
-5.039223251028805, 0.7223884314640117
-5.038111520328295, 0.5372446798842354
-5.031227341759747, 0.46829444778149565
-5.0176805533287006, 0.8083758210636862
-5.015800890543687, 0.9354552419829414
-5.00356235086627, 0.3133988807546597
-4.987575033262166, 0.6065791547664983
-4.987575033262166, 0.4252165628330946
-4.978232808898593, 0.7268308541086022
-4.971863772944019, 0.6619204649912263
-4.971185332157553, 0.8503008566998069
-4.968817712270091, 0.5153142470085168
-4.954971981934062, 0.9767161872601733
-4.946179943170682, 0.9071845348146974
-4.9444353811483435, 0.33980998318692635
-4.94517346508087, 0.26184245293879904
-4.940364736429549, 0.5824705540503281
-4.9231268021611925, 0.4278995295261261
-4.91746735988634, 0.7822418682389127
-4.9360033313736995, 0.7018087097813979
-4.941818538114832, 0.6628194341492755
-4.907411898229798, 0.8536291495435533
-4.919803826880546, 0.48620811388907903
-4.897041446208112, 0.2282633617053893
-4.891004707781603, 1.011775984424104
-4.892389280815205, 0.9273462166846453
-4.882212669018223, 0.8834285724935853
-4.877086105180647, 0.3524311109526632
-4.87639746227709, 0.2766454603998181
-4.886574074074073, 0.4222889987986562
-4.857498040368409, 0.8774026698560347
-4.8355294815685745, 0.20901793031347893
-4.825805163629235, 1.0356373950248035
-4.828422006662747, 0.9549358866119437
-4.826677444640406, 0.9132778601391021
-4.816791593180481, 0.33627910304640984
-4.816791593180481, 0.27787420055938306
-4.7760851459925515, 0.2035675041445284
-4.75993179393385, 1.053697779052639
-4.764454732510286, 0.9818015288224595
-4.786054071834494, 0.9416062244066197
-4.752824319028022, 0.2953274824517411
-4.709363300225872, 0.24137884857966618
-4.703879662290154, 0.1736397482394043
-4.700487458357827, 1.080587257566589
-4.700487458357827, 0.9969620562783446
-4.648150597687634, 0.2720206854734464
-4.642335390946501, 0.18822692746806702
-4.6377444382561315, 1.0586482701206368
-4.634858696565045, 0.9842510738415928
-4.58051056138288, 0.25161645129403354
-4.580029604434365, 0.17675002099604775
-4.572552910052909, 1.0763963246451143
-4.575169753086419, 0.9953207352452482
-4.514906512792985, 0.9697099161803662
-4.518831476349112, 0.26675529469058645
-4.50941637972061, 0.17678915023395625
-4.508585635900449, 1.0653711830107397
-4.452576013077962, 1.0152759653801375
-4.460771713806691, 0.9201048753961434
-4.454864202196653, 0.3088944739741546
-4.4562487752302555, 0.22398202109017795
-4.450433568489123, 0.18085448651068425
-4.4368647527598135, 1.0428586457146984
-4.41101938946589, 0.8835608426952248
-4.388608738925502, 0.988830303602386
-4.391118459729569, 0.368902872564302
-4.392281501077797, 0.2868077065674992
-4.390204641527392, 0.22453284036224197
-4.372897478607355, 1.0144568388775719
-4.377016583382323, 0.8117076893529491
-4.38414021164021, 0.19640614216701024
-4.352259195859412, 0.44396836715242927
-4.347052115313431, 0.9039772750581152
-4.3376831711193855, 0.7276060812322491
-4.330391086475741, 0.5043941796913156
-4.324735638161561, 0.65636889824356
-4.322862470605525, 0.35716816461331113
-4.328314226925336, 0.28495358267902304
-4.334129433666469, 0.24020560511435107
-4.317514557263234, 0.5806299748980486
-4.3166838134430705, 0.9763042813431948
-4.311552748671483, 0.8178916139128134
-4.2821560234175955, 0.9085119189621302
-4.269820088529238, 0.7273568266096895
-4.274592793221544, 0.4432341775301776
-4.262408550525832, 0.6466660820905741
-4.260321040413633, 0.3522666487306836
-4.274315878614816, 0.2892495899176719
-4.256593343784699, 0.5818981635317257
-4.2585317460317444, 0.5213773634667316
-4.249082035077404, 0.8199458989028869
-4.232363315696647, 0.8951221947447765
-4.208779421690943, 0.7306541485337608
-4.209867647513844, 0.4410985977199182
-4.196502874126326, 0.6436938653117732
-4.20936681631126, 0.36235559335398015
-4.1921414690704815, 0.5716232269830837
-4.194564471879286, 0.5132000641850318
-4.193595270755765, 0.8141342037600277
-4.162165462892975, 0.7282074006318666
-4.162580834803055, 0.46015105138494583
-4.150223520478148, 0.6498300321351156
-4.148042817950223, 0.5721148507413911
-4.1519196224443125, 0.5186893946063726
-3.9140499752713183, 1.0084891284399866
-3.9154345483049173, 0.9246110008656947
-3.9154345483049173, 0.866206098378667
-3.9154345483049173, 0.8078011958916385
-3.9154345483049173, 0.7493962934046117
-3.9154345483049173, 0.6909913909175831
-3.9154345483049173, 0.6325864884305545
-3.9154345483049173, 0.574181585943526
-3.9154345483049173, 0.5157766834564992
-3.9154345483049173, 0.4573717809694706
-3.9154345483049173, 0.39896687848244383
-3.9154345483049173, 0.34056197599541527
-3.9154345483049173, 0.2821570735083867
-3.9154345483049173, 0.22375217102135814
-3.9178575511137215, 0.1720946449990084
-3.8514672741524585, 1.0347398305060649
-3.8514672741524585, 0.9763349280190363
-3.8514672741524585, 0.9179300255320086
-3.8514672741524585, 0.8595251230449801
-3.8514672741524585, 0.8011202205579524
-3.8514672741524585, 0.7427153180709247
-3.8514672741524585, 0.6843104155838962
-3.8514672741524585, 0.6259055130968676
-3.8514672741524585, 0.5675006106098408
-3.8514672741524585, 0.5090957081228122
-3.8514672741524585, 0.4506908056357837
-3.8514672741524585, 0.3922859031487551
-3.8514672741524585, 0.3338810006617283
-3.8514672741524585, 0.27547609817469976
-3.851467274152455, 0.1918508968864554
-3.7874999999999996, 1.0328857066175878
-3.7874999999999996, 0.9744808041305593
-3.7874999999999996, 0.9160759016435316
-3.7874999999999996, 0.857670999156503
-3.7874999999999996, 0.7992660966694753
-3.7874999999999996, 0.7408611941824468
-3.7874999999999996, 0.68245629169542
-3.7874999999999996, 0.6240513892083914
-3.7874999999999996, 0.5656464867213629
-3.7874999999999996, 0.5072415842343361
-3.7874999999999996, 0.4488366817473075
-3.7874999999999996, 0.39043177926027894
-3.7874999999999996, 0.33202687677325216
-3.7874999999999996, 0.2736219742862236
-3.787499999999996, 0.18999677299797924
-3.74679355281207, 1.0317058095976481
-3.7213520233196142, 0.9480068647456577
-3.723532725847539, 0.8939490016851774
-3.723532725847539, 0.8362681269149297
-3.732255535959238, 0.7870457346772399
-3.735993883149968, 0.7302662005340057
-3.7409783460709374, 0.6768602086865609
-3.7409783460709374, 0.6184553061995324
-3.7409783460709374, 0.5600504037125056
-3.7409783460709374, 0.501645501225477
-3.7409783460709374, 0.44324059873844845
-3.7409783460709374, 0.38483569625142167
-3.7409783460709374, 0.3264307937643931
-3.7409783460709374, 0.26802589127736454
-3.743159048598862, 0.19236183443526755
-3.732255535959238, 0.15786564879425669
-3.656922175903661, 0.946561682437955
-3.664852003277929, 0.8722166776782965
-3.5942136045090223, 0.9885994358181414
-3.5980211803514255, 0.9172206826807354
-3.5279581412378676, 1.013905333127652
-3.536615366311132, 0.9427469921886535
-3.4625325644661142, 1.0278389202045668
-3.473115385557511, 0.9542513643757413
-3.403696355085243, 1.0473432759463321
-3.403696355085243, 0.9889383734593045
-3.39824459876543, 0.9198921310674004
-3.339729080932784, 1.0372835046010005
-3.339729080932784, 0.9788786021139719
-3.3451566072245082, 0.9094488133815357
-3.314073757074844, 0.8644058315161187
-3.2940381708238853, 0.8031669806945825
-3.290784424194918, 0.7357553302925872
-3.293207427003722, 0.6734385073287346
-3.293207427003722, 0.6150336048417078
-3.293207427003722, 0.5566287023546792
-3.293207427003722, 0.49822379986765064
-3.293207427003722, 0.4398188973806221
-3.293207427003722, 0.3814139948935935
-3.293207427003722, 0.3230090924065667
-3.293207427003722, 0.26460418991953816
-3.293207427003722, 0.2061992874325096
-3.293207427003722, 0.15310392153521235
-3.2757618067803236, 1.0175700303652508
-3.2757618067803236, 0.9591651278782223
-3.24707345352407, 0.9025351787004121
-3.2300708966714264, 0.8320323185038294
-3.226817150042459, 0.7635461190301029
-3.229240152851263, 0.701993547545074
-3.229240152851263, 0.6435886450580472
-3.229240152851263, 0.5851837425710187
-3.229240152851263, 0.5267788400839901
-3.229240152851263, 0.46837393759696155
-3.229240152851263, 0.40996903510993477
-3.229240152851263, 0.3515641326229062
-3.229240152851263, 0.29315923013587764
-3.229240152851263, 0.23475432764885085
-3.234667679142987, 0.1676896961245653
-3.2117945326278647, 0.9814452612157902
-3.206560846560844, 0.14023883009993732
-3.1847953584726056, 0.9160518221125127
-3.165660559148213, 0.8477879569751972
-3.16284987589, 0.778063066293293
-3.1652728786988042, 0.7151026631367454
-3.1652728786988042, 0.6566977606497169
-3.1652728786988042, 0.5982928581626883
-3.1652728786988042, 0.5398879556756615
-3.1652728786988042, 0.48148305318863294
-3.1652728786988042, 0.42307815070160437
-3.1652728786988042, 0.3646732482145758
-3.1652728786988042, 0.30626834572754724
-3.1652728786988042, 0.24786344324052045
-3.1652728786988042, 0.1894585407534919
-3.141042850610752, 0.14670227788238321
-3.1161079489783177, 0.9014421139286926
-3.100142563198119, 0.8264648299380557
-3.112936018028609, 0.7459600348757593
-3.1158436213991756, 0.688650751050103
-3.118751224769742, 0.6248436057789224
-3.118751224769742, 0.5664387032918938
-3.118751224769742, 0.508033800804867
-3.118751224769742, 0.4496288983178385
-3.118751224769742, 0.3912239958308099
-3.118751224769742, 0.3328190933437831
-3.118751224769742, 0.27441419085675456
-3.118751224769742, 0.216009288369726
-3.1071208112874764, 0.14240056999718753
-3.055656231628454, 0.9333571790677251
-3.037919851067997, 0.871517933469085
-2.9940150401724477, 0.9724539096070206
-2.9934012127942147, 0.9072173097319203
-2.9289918469012033, 0.9965439912628211
-2.937649071974466, 0.9250063977102716
-2.8632455785812265, 1.012400798088363
-2.8738283996726253, 0.9389401245677469
-2.804730060748579, 1.0299819340815022
-2.810157587040303, 0.9578330190349318
-2.7737156247958694, 0.9110894320949763
-2.740762786596118, 1.022335588458775
-2.7120744333398648, 0.9741043607956268
-2.722929485923313, 0.8903513373302223
-2.691846635773649, 0.8454332857375046
-2.674081749297798, 0.7815058372407613
-2.6685573028937224, 0.7168348387942647
-2.6709803057025265, 0.6544375683063262
-2.6709803057025265, 0.5960326658192976
-2.6709803057025265, 0.537627763332269
-2.6709803057025265, 0.47922286084524224
-2.6709803057025265, 0.4208179583582137
-2.6709803057025265, 0.3624130558711851
-2.6709803057025265, 0.30400815338415654
-2.6709803057025265, 0.24560325089712798
-2.6709803057025265, 0.1871983484101012
-2.6709803057025265, 0.1345856676573245
-2.653534685479128, 0.9990517764873621
-2.653534685479128, 0.9406468740003335
-2.624846332222875, 0.8841456408610613
-2.607843775370231, 0.8132382445433572
-2.6045900287412636, 0.7450680889142571
-2.6070130315500677, 0.6834752936671862
-2.6070130315500677, 0.6250703911801594
-2.6070130315500677, 0.5666654886931308
-2.6070130315500677, 0.5082605862061023
-2.6070130315500677, 0.4498556837190737
-2.6070130315500677, 0.3914507812320469
-2.6070130315500677, 0.33304587874501834
-2.6070130315500677, 0.2746409762579898
-2.6070130315500677, 0.216236073770963
-2.6124405578417917, 0.14930015828521626
-2.5895674113266693, 0.9638923776269435
-2.5843337252596505, 0.12246873819605675
-2.560879058070414, 0.8968042503178459
-2.545282375374967, 0.8277910795691241
-2.539467168633834, 0.7610491025346064
-2.543045757397609, 0.6961017241143352
-2.543045757397609, 0.6376968216273067
-2.543045757397609, 0.5792919191402799
-2.543045757397609, 0.5208870166532513
-2.543045757397609, 0.46248211416622276
-2.543045757397609, 0.4040772116791942
-2.543045757397609, 0.3456723091921656
-2.543045757397609, 0.28726740670513884
-2.543045757397609, 0.22886250421811027
-2.543045757397609, 0.1704576017310817
-2.514864370882888, 0.12890954967578416
-2.5197849304330777, 0.8846400738979892
-2.49735484728871, 0.7990373411247935
-2.4965241034685466, 0.7257416566555026
-2.4965241034685466, 0.6673367541684758
-2.4965241034685466, 0.6089318516814473
-2.4965241034685466, 0.5505269491944187
-2.4965241034685466, 0.4921220467073919
-2.4965241034685466, 0.43371714422036156
-2.4965241034685466, 0.3753122417333348
-2.4965241034685466, 0.316907339246308
-2.4965241034685466, 0.25850243675927764
-2.4965241034685466, 0.20009753427225085
-2.484893689986281, 0.12701976955868233
-2.263043552812073, 0.5604844372591256
-2.2554166855092763, 0.47957883377233657
-2.2492067814780228, 0.6519227381415966
-2.249862417532171, 0.4140016268728903
-2.2298553371966072, 0.7230182616972325
-2.2298553371966072, 0.36026313683462163
-2.2074252540522377, 0.30651762359980417
-2.2007239205695974, 0.7762805790095975
-2.1935518322555385, 0.5542225552175886
-2.194133352929649, 0.47215880206352345
-2.185186881020215, 0.6364208590657849
-2.1702263918827693, 0.25078488018004386
-2.1632680248420986, 0.7109358939404551
-2.1695042420260293, 0.4100587217054148
-2.161636609376261, 0.8342812758788707
-2.1438733518098587, 0.335584627481337
-2.1275492357436807, 0.5196557864512759
-2.122024789339603, 0.6378983235209752
-2.1243508720360573, 0.575844168107988
-2.1195618782492396, 0.19935291018655654
-2.1148629031426296, 0.7619618337458114
-2.1101036155202824, 0.8839152800143113
-2.103232489660364, 0.4232116250398157
-2.095662518779802, 0.25927217910085787
-2.0786599619271584, 0.33369438429633114
-2.061067739853142, 0.5231007882964711
-2.071485356207578, 0.6925696947234758
-2.0603835978835967, 0.5981243014455551
-2.0603835978835967, 0.5580614344503214
-2.056312953164806, 0.1633121377166571
-2.0519515481089563, 0.804843217047658
-2.0807368214775614, 0.7551042367802943
-2.0473686113677285, 0.9212610273229958
-2.048753184401331, 0.8577131383357877
-2.069106407995296, 0.4229210864879125
-2.054568391142464, 0.35613048732345476
-2.0333844237283376, 0.22960459158315594
-2.017351067999215, 0.2876206096442253
-2.0008469574386663, 0.5223294170454391
-1.9964163237311379, 0.5986836032796834
-1.991473398001176, 0.12638978882839425
-1.9937323821583064, 0.8228316223149807
-1.9821690672153647, 0.9505583920512768
-1.9847859102488723, 0.8696155410661559
-1.9696017593136919, 0.2114900954981156
-1.9382642563198118, 0.5213371397046895
-1.932449049578679, 0.5968294793912055
-1.930704487556337, 0.12117717235101644
-1.919434063062809, 0.9643272685508046
-1.9208186360964135, 0.8836900269468684
-1.9498946698020774, 0.8681215156188298
-1.909188222614148, 0.21000713690595418
-1.8742969821673512, 0.5194830158162134
-1.8684817754262184, 0.5949753555027293
-1.8684817754262184, 0.14825025424864258
-1.8544283591351487, 0.9941106384801568
-1.8582359349775572, 0.913756240155351
-1.839793422169965, 0.0969941996798287
-1.8103297080148923, 0.5176288919277354
-1.8045145012737596, 0.5931212316142513
-1.8045145012737596, 0.1895964507947845
-1.792884087791494, 0.9996876950110964
-1.7942686608250984, 0.9178437405458579
-1.7812536743092284, 0.10577970778252421
-1.7463624338624335, 0.5157747680392593
-1.7405472271213007, 0.5912671077257752
-1.7360242885448631, 0.17109266895826636
-1.7333474473465635, 0.9067230104701647
-1.7289168136390352, 0.9920413493883684
-1.7172864001567696, 0.08691093254968507
-1.6823951597099747, 0.5139206441507813
-1.6765799529688419, 0.5894129838372972
-1.6751953799352375, 0.18180270925491016
-1.6700378453850675, 0.10406445164395883
-1.6693801731941047, 0.9472187617616754
-1.667493692435821, 0.8506442910109691
-1.618427885557514, 0.5120665202623051
-1.6112281057827786, 0.8154495481419533
-1.6126126788163813, 0.5875588599488211
-1.6126126788163813, 0.21934249745105738
-1.6085867664571367, 0.13327257546929872
-1.6162471830295893, 0.0952046891995888
-1.6067974720752485, 0.9551963833566068
-1.6067974720752485, 0.8967914808695783
-1.5556848654558202, 0.7284279184422537
-1.5544606114050552, 0.5265030200014067
-1.5583374158991425, 0.2773246035059387
-1.547260831630318, 0.8331901426203361
-1.5462224018551183, 0.6052687279423097
-1.545838063478545, 0.1659868857948048
-1.5428301979227896, 0.9190716142071462
-1.5631834215167544, 0.1082678347774948
-1.5253845776993913, 0.33548228947450376
-1.4995069077013525, 0.6801175672451816
-1.492754806540816, 0.5141758202919995
-1.4904933372525964, 0.2760660466846705
-1.4832935574778592, 0.842713597138423
-1.4846781305114636, 0.7576172641993875
-1.4796936675904941, 0.5901534294161372
-1.4810053683591704, 0.19824385395408228
-1.5079389574759947, 0.1606468346269736
-1.4614173035469324, 0.3336281655860276
-1.4344837144301081, 0.682159099588894
-1.425913936074755, 0.515498645522376
-1.4220031245237, 0.2574147777206601
-1.4294336664707021, 0.8145415491597703
-1.4226492586060484, 0.7649367119464614
-1.416557137258195, 0.5993217108516902
-1.4451347246717603, 0.20360351398864474
-1.3920225031027496, 0.32028971070346834
-1.3777677911937172, 0.7020542515376089
-1.3696662638535066, 0.6318424552448221
-1.3635701292504834, 0.5212427845858603
-1.3916348226533408, 0.27585535078825174
-1.3460823698478013, 0.5869127258664726
-1.3567435822065441, 0.34209814062202604
-0.6866102339426838, 0.9149401504304624
-0.6904178097850924, 0.8428977052193405
-0.6240275328238294, 0.9411908524965416
-0.6240275328238294, 0.8602204195031611
-0.5546327323796447, 0.9455508529130814
-0.5645831972478028, 0.8596772923035054
-0.5179692384498367, 1.1861479082995183
-0.5193538114834411, 1.1022697807252282
-0.5193538114834411, 1.0438648782381996
-0.5128117038996667, 0.9870804187363484
-0.5179692384498367, 0.7773135908903219
-0.5193538114834411, 0.6934354633160318
-0.5193538114834411, 0.6350305608290032
-0.5193538114834411, 0.5766256583419747
-0.5193538114834411, 0.5182207558549479
-0.5193538114834411, 0.4598158533679193
-0.5193538114834411, 0.40141095088089074
-0.5193538114834411, 0.34300604839386395
-0.5217768142922452, 0.2850655707403327
-0.5143693485624716, 0.21970790433427467
-0.49609298451890993, 0.9215539949503979
-0.49609298451890993, 0.8631490924633693
-0.4954808574935292, 0.1614341719241139
-0.45361669180106823, 0.11015676929233642
-0.4553865373309822, 1.2123986103655975
-0.4553865373309822, 1.1539937078785698
-0.4553865373309822, 1.0955888053915412
-0.4553865373309822, 1.0371839029045136
-0.4553865373309822, 0.978779000417485
-0.4553865373309822, 0.8035642929564011
-0.4553865373309822, 0.7451593904693734
-0.4553865373309822, 0.6867544879823448
-0.4553865373309822, 0.6283495854953163
-0.4553865373309822, 0.5699446830082895
-0.4553865373309822, 0.5115397805212609
-0.4553865373309822, 0.45313487803423236
-0.4553865373309822, 0.39472997554720557
-0.4553865373309822, 0.336325073060177
-0.44957133058984944, 0.2777516138560152
-0.4321257103664511, 0.9196998710619209
-0.4321257103664511, 0.8612949685748923
-0.4321257103664511, 0.2188410412175834
-0.3972344699196544, 0.15942479842774837
-0.3972344699196544, 0.08014376344019247
-0.3914192631785216, 1.2105444864771204
-0.3914192631785216, 1.1521395839900928
-0.3914192631785216, 1.0937346815030642
-0.3914192631785216, 1.0353297790160365
-0.3914192631785216, 0.976924876529008
-0.3914192631785216, 0.801710169067924
-0.3914192631785216, 0.7433052665808955
-0.3914192631785216, 0.6849003640938687
-0.3914192631785216, 0.6264954616068401
-0.3914192631785216, 0.5680905591198115
-0.3914192631785216, 0.5096856566327848
-0.3914192631785216, 0.4512807541457562
-0.3914192631785216, 0.3928758516587276
-0.3914192631785216, 0.33447094917169906
-0.3856040564373888, 0.27589748996753727
-0.36815843621399225, 0.9178457471734438
-0.36815843621399225, 0.8594408446864152
-0.36815843621399225, 0.21698691732910547
-0.32822734992488023, 0.16096428311090882
-0.3374670673024571, 0.0764270026977254
-0.3448976092494611, 1.2091960327400466
-0.3448976092494611, 1.150791130253019
-0.3448976092494611, 1.0923862277659904
-0.3448976092494611, 1.0339813252789627
-0.32745198902606276, 0.9523845508480493
-0.32745198902606276, 0.8157846549486365
-0.3448976092494611, 0.7419568128438208
-0.3448976092494611, 0.683551910356794
-0.3448976092494611, 0.6251470078697654
-0.3448976092494611, 0.5667421053827368
-0.3448976092494611, 0.50833720289571
-0.3448976092494611, 0.4499323004086815
-0.3448976092494611, 0.3915273979216529
-0.3448976092494611, 0.33312249543462435
-0.33908240250832833, 0.269239499640733
-0.2987636357698076, 0.8921183735815141
-0.29372378992749226, 0.8339213577122848
-0.29837595532039884, 0.18538253286642714
-0.29604987262394644, 0.05056665658450221
-0.26416885684314906, 0.12902014118702887
-0.24022388790907456, 0.9300661091656792
-0.24022388790907456, 0.8490956761722988
-0.22927761639635236, 0.06991622407894127
-0.20533264746227786, 0.15917196335204942
-0.17625661375661394, 0.9282119852772022
-0.17625661375661394, 0.8472415522838217
-0.17044140701548116, 0.07767287520038302
-0.14659905937683604, 0.14950523562439777
-0.13555016656868446, 0.925262242727352
-0.13555016656868446, 0.8451767324989259
-0.13264256319811807, 0.05751119333043597
0.02175117577895591, 0.5314252592251787
0.019037412633092998, 0.44823268684424455
0.03085421094680285, 0.3904382622109388
0.037659919935052244, 0.6087488472457014
0.040982895215698534, 0.33578027367086705
0.05552091206853049, 0.6730833342462041
0.06715132555079606, 0.2737724713550964
0.08465232869554029, 0.7241965534151067
0.0860092102684682, 0.49451976600862757
0.09085521588608003, 0.2279290575497388
0.10171026846952813, 0.5771589105016375
0.10222717573540407, 0.39862550856542
0.10941541740152871, 0.32858199886682016
0.12166090082756753, 0.6647189386923689
0.12339756890410314, 0.7858509650057899
0.13647228209985585, 0.16342333832865918
0.15172104644327078, 0.27890622736838466
0.1595715755437972, 0.2109820842811967
0.15782701352145878, 0.4613773015021003
0.1624099502626848, 0.5798493967675125
0.1610253772290804, 0.5175656831588125
0.1718250468911826, 0.36782711951602387
0.17404036374495035, 0.7049184808811493
0.17985557048608314, 0.825352255273593
0.1959166176758771, 0.1343883796815888
0.21474681093287984, 0.2615300364594262
0.2235388496962578, 0.19585411891839577
0.20076262329348893, 0.43854067560902266
0.22135814716833124, 0.6326267121926001
0.20173182441700988, 0.5367390097328357
0.1959166176758771, 0.5138995745611421
0.21336223789927544, 0.3514530384229779
0.237786106212031, 0.08314445608863075
0.23800763789741097, 0.7414952884992871
0.23371546149324018, 0.6906734316557177
0.24382284463854376, 0.8609177225889262
0.24243827160493936, 0.799266096669478
0.26841286171532985, 0.1511037151585537
0.2656990985694705, 0.25095109583166497
0.28217551766934434, 0.21052557650562598
0.3002995786792084, 0.06659850734293649
0.30059033901626364, 0.7478639596124825
0.3100783079096914, 0.887288188638232
0.3064055457573964, 0.8099617865385431
0.29622893396041405, 0.7824420293405119
0.32829808878284084, 0.15088789645994893
0.3587424064275915, 0.05304252490913619
0.37175739294346144, 0.8979159219998998
0.37037281990985704, 0.8153479398178805
0.3456581912600427, 0.7796819130974386
0.3878184401332554, 0.1458406593605197
0.4245460616561978, 0.08781924356725845
0.43434009406231766, 0.9317516763370222
0.43572466709592206, 0.8492873091066597
0.40526406035665374, 0.8184394232435022
0.43836600642156043, 0.02758427235077754
0.48667695473250916, 0.12318510424387874
0.49708311416400974, 0.9098126888910691
0.49996885585509787, 0.8354154926120261
0.4983073682147747, 0.03922278952136615
0.5551671674614056, 0.10379639964240539
0.5622746423672353, 0.9275607434155475
0.5596577993337277, 0.8467506308451682
0.5622746423672353, 0.03143968310769196
0.6193693994619913, 0.8239385861400077
0.617228346070938, 0.11780814496729697
0.626241916519696, 0.9170182869256935
0.6316694428114182, 0.0273044249806631
0.6831017157663268, 0.8658413178064857
0.6749060150375961, 0.7713610885775894
0.6799633502234919, 0.15651920168476963
0.6809048598863434, 0.07401710985580934
0.690209190672153, 0.8991148819818973
0.690209190672153, 0.03281571885302448
0.7287731932712447, 0.7351480086122137
0.7451628943758557, 0.8436302246192193
0.7439306243759525, 0.2135756504347217
0.7425460513423481, 0.12880110759203411
0.7465719637015944, 0.06970400278236966
0.7634807956104233, 0.05675690202125949
0.7688855171698314, 0.6584518321552988
0.7871293030243649, 0.29205084202624043
0.7927404674237017, 0.7570470747304228
0.798880866647071, 0.5850252417943977
0.8065133254948051, 0.8398729421609179
0.8096147690900786, 0.37788554094825244
0.8073856065059779, 0.18795723672065634
0.8102516726855349, 0.1041351852663297
0.8162053367300288, 0.5029995735197907
0.8198883009994127, 0.4326299533948479
0.8349052172309257, 0.6671572908402332
0.851742711259174, 0.3005020885381118
0.8537618802665108, 0.21740830912194298
0.8567077415761624, 0.7652531254330128
0.8643019424848113, 0.5768239040263321
0.8686442185711201, 0.15025841800780348
0.8794270715567016, 0.49817193626238065
0.8840494153765768, 0.4311241800551162
0.8821110131295313, 0.37044248494194854
0.8971621364595208, 0.6709746047282739
0.9155484518910448, 0.30156551754864225
0.9143183120034948, 0.22576159104607818
0.9062025839142258, 0.7466523213925633
0.9269223121347281, 0.5842224284596629
0.9111870468351952, 0.17547982573479004
0.9442610351753871, 0.49818166068836867
0.9483149052593483, 0.41979954574560097
0.9480166895290374, 0.3581812607152557
0.9533472957084079, 0.6521160826112506
0.959647103011303, 0.27960222614621877
0.9780619243582223, 0.5673320538927076
0.9904192386831276, 0.4918660511932451
0.9916307400875297, 0.4067677344292129
0.9867847344699179, 0.3546977552278143
1.7950984714873606, 1.2215006730908495
1.7950984714873606, 1.1630957706038219
1.7950984714873606, 1.1046908681167942
1.7950984714873606, 1.0462859656297656
1.7950984714873606, 0.9878810631427379
1.7950984714873606, 0.9294761606557094
1.7950984714873606, 0.8710712581686817
1.7950984714873606, 0.8126663556816531
1.7950984714873606, 0.7542614531946263
1.7950984714873606, 0.6958565507075978
1.7950984714873606, 0.6374516482205692
1.7950984714873606, 0.5790467457335406
1.7950984714873606, 0.5206418432465139
1.7950984714873606, 0.4622369407594853
1.7950984714873606, 0.40383203827245673
1.7950984714873606, 0.34542713578542994
1.7950984714873606, 0.2870222332984014
1.7950984714873606, 0.2286173308113728
1.7950984714873606, 0.17021242832434602
1.7950984714873606, 0.11180752583731746
1.7950984714873606, 0.0281823245490731
1.8590657456398176, 1.2196465492023725
1.8590657456398176, 1.1612416467153448
1.8590657456398176, 1.1028367442283171
1.8590657456398176, 1.0444318417412886
1.8590657456398176, 0.9860269392542609
1.8590657456398176, 0.9276220367672323
1.8590657456398176, 0.8692171342802046
1.8590657456398176, 0.8108122317931761
1.8590657456398176, 0.7524073293061484
1.8590657456398176, 0.6940024268191198
1.8590657456398176, 0.635597524332093
1.8590657456398176, 0.5771926218450645
1.8590657456398176, 0.5187877193580359
1.8590657456398176, 0.46038281687100735
1.8590657456398176, 0.40197791438398056
1.8590657456398176, 0.343573011896952
1.8590657456398176, 0.28516810940992343
1.8590657456398176, 0.22676320692289487
1.8590657456398176, 0.16835830443586808
1.8590657456398176, 0.10995340194883951
1.8590657456398176, 0.026328200660595158
1.9230330197922783, 1.2177924253138954
1.9230330197922783, 1.1593875228268677
1.9230330197922783, 1.10098262033984
1.9230330197922783, 1.0425777178528115
1.9230330197922783, 0.9841728153657838
1.9230330197922783, 0.9257679128787553
1.9230330197922783, 0.8673630103917276
1.9230330197922783, 0.808958107904699
1.9230330197922783, 0.7505532054176722
1.9230330197922783, 0.6921483029306437
1.9230330197922783, 0.6337434004436151
1.9230330197922783, 0.5753384979565865
1.9230330197922783, 0.5169335954695597
1.9230330197922783, 0.4585286929825312
1.9230330197922783, 0.4001237904955026
1.9230330197922783, 0.34171888800847583
1.9230330197922783, 0.28331398552144726
1.9230330197922783, 0.2249090830344187
1.9230330197922783, 0.1665041805473919
1.9230330197922783, 0.10809927806036335
1.9230330197922783, 0.02447407677211899
1.9782774838330397, 1.21619113650112
1.9782774838330397, 1.1577862340140923
1.9782774838330397, 1.0993813315270646
1.9782774838330397, 1.040976429040036
1.9782774838330397, 0.9825715265530084
1.9782774838330397, 0.9241666240659798
1.9782774838330397, 0.8657617215789521
1.9782774838330397, 0.8073568190919236
1.9870002939447389, 0.7390453786387763
1.9870002939447389, 0.6806404761517495
1.9870002939447389, 0.6222355736647209
1.9870002939447389, 0.5691402077674219
1.9782774838330397, 0.5153323066567825
1.9782774838330397, 0.45692740416975575
1.9782774838330397, 0.3985225016827272
1.9782774838330397, 0.3401175991956986
1.9782774838330397, 0.28171269670867183
1.9782774838330397, 0.2233077942216415
1.9782774838330397, 0.1649028917346147
1.9782774838330397, 0.10649798924758791
1.9782774838330397, 0.022872787959341778
2.050967568097196, 0.7096782015126095
2.050967568097196, 0.651273299025581
2.050967568097196, 0.5742850184744981
2.1149348422496566, 0.7078240776241316
2.1149348422496566, 0.649419175137103
2.1149348422496566, 0.5724308945860219
2.178902116402117, 0.7059699537356554
2.178902116402117, 0.6475650512486268
2.178902116402117, 0.570576770697544
2.2428693905545742, 0.7041158298471775
2.2428693905545742, 0.6457109273601489
2.2428693905545742, 0.5687226468090678
2.306836664707035, 0.7022617059587013
2.306836664707035, 0.6438568034716727
2.306836664707035, 0.5668685229205899
2.3708039388594955, 0.7004075820702234
2.3708039388594955, 0.6420026795831948
2.3708039388594955, 0.5650143990321137
2.4347712130119525, 0.6985534581817472
2.4347712130119525, 0.6401485556947186
2.4347712130119525, 0.5631602751436358
2.498738487164413, 0.6966993342932692
2.498738487164413, 0.6382944318062407
2.498738487164413, 0.5613061512551596
2.5627057613168702, 0.6948452104047931
2.5627057613168702, 0.6364403079177645
2.5627057613168702, 0.5594520273666816
2.6316574983903003, 0.6962598828521696
2.626673035469331, 0.6287939622950365
2.623000273317036, 0.5572851864108888
2.673194689398393, 1.196048608803574
2.673194689398393, 1.1376437063165463
2.673194689398393, 1.0792388038295186
2.673194689398393, 1.02083390134249
2.673194689398393, 0.9624289988554624
2.673194689398393, 0.9040240963684338
2.673194689398393, 0.8456191938814062
2.673194689398393, 0.7872142913943776
2.673194689398393, 0.49518977895923655
2.673194689398393, 0.436784876472208
2.673194689398393, 0.3783799739851812
2.673194689398393, 0.31997507149815263
2.673194689398393, 0.26157016901112407
2.673194689398393, 0.2031652665240955
2.673194689398393, 0.1447603640370687
2.673194689398393, 0.08635546155004015
2.673194689398393, 0.0027302602617957916
2.6906403096217915, 0.7283037187559476
2.6906403096217915, 0.669898816268919
2.6906403096217915, 0.6114939137818904
2.6906403096217915, 0.5530890112948619
2.73716196355085, 1.194194484915097
2.73716196355085, 1.1357895824280693
2.73716196355085, 1.0773846799410416
2.73716196355085, 1.018979777454013
2.73716196355085, 0.9605748749669853
2.73716196355085, 0.9021699724799568
2.73716196355085, 0.8437650699929291
2.73716196355085, 0.7853601675059005
2.73716196355085, 0.4933356550707604
2.73716196355085, 0.4349307525837318
2.73716196355085, 0.37652585009670325
2.73716196355085, 0.31812094760967646
2.73716196355085, 0.2597160451226479
2.73716196355085, 0.20131114263561933
2.73716196355085, 0.14290624014859254
2.73716196355085, 0.08450133766156398
2.73716196355085, 0.0008761363733196248
2.7546075837742485, 0.7264495948674696
2.7546075837742485, 0.6680446923804411
2.7546075837742485, 0.6096397898934143
2.7546075837742485, 0.5512348874063857
2.801129237703311, 1.1923403610266199
2.801129237703311, 1.1339354585395922
2.801129237703311, 1.0755305560525645
2.801129237703311, 1.017125653565536
2.801129237703311, 0.9587207510785083
2.801129237703311, 0.9003158485914797
2.801129237703311, 0.841910946104452
2.801129237703311, 0.7835060436174235
2.801129237703311, 0.49148153118228244
2.801129237703311, 0.4330766286952539
2.801129237703311, 0.3746717262082271
2.801129237703311, 0.3162668237211985
2.801129237703311, 0.25786192123416996
2.801129237703311, 0.1994570187471414
2.801129237703311, 0.1410521162601146
2.801129237703311, 0.08264721377308604
2.801129237703311, -0.0009779875151583184
2.818574857926709, 0.7245954709789935
2.818574857926709, 0.6661905684919649
2.818574857926709, 0.6077856660049363
2.818574857926709, 0.5493807635179078
2.8592813051146386, 1.190654793855277
2.8592813051146386, 1.1322498913682493
2.8592813051146386, 1.0738449888812216
2.8592813051146386, 1.015440086394193
2.8592813051146386, 0.9570351839071654
2.8592813051146386, 0.8986302814201368
2.8592813051146386, 0.8402253789331091
2.8592813051146386, 0.7818204764460805
2.8592813051146386, 0.4897959640109395
2.8592813051146386, 0.4313910615239127
2.8592813051146386, 0.37298615903688415
2.8592813051146386, 0.3145812565498556
2.8592813051146386, 0.2561763540628288
2.8592813051146386, 0.19777145157579845
2.8592813051146386, 0.13936654908877166
2.8592813051146386, 0.08096164660174487
2.8592813051146386, -0.002663554686501257
2.868004115226338, 0.7231627388833513
2.868004115226338, 0.6647578363963227
2.868004115226338, 0.6063529339092959
2.868004115226338, 0.5479480314222673
3.2081937095825985, 1.1805413908272202
3.2081937095825985, 1.1221364883401925
3.2081937095825985, 1.0637315858531649
3.2081937095825985, 1.0053266833661363
3.2081937095825985, 0.9469217808791086
3.2081937095825985, 0.88851687839208
3.2081937095825985, 0.8301119759050524
3.2081937095825985, 0.7717070734180238
3.2081937095825985, 0.7133021709309961
3.2081937095825985, 0.6548972684439676
3.2081937095825985, 0.5964923659569408
3.2081937095825985, 0.5380874634699122
3.2081937095825985, 0.47968256098288364
3.2081937095825985, 0.4212776584958551
3.2081937095825985, 0.3628727560088283
3.2081937095825985, 0.3044678535217997
3.2081937095825985, 0.24606295103477116
3.2081937095825985, 0.1876580485477426
3.2081937095825985, 0.1292531460607158
3.2081937095825985, 0.07084824357368724
3.2081937095825985, -0.012776957714557113
3.2721609837350556, 1.1786872669387432
3.2721609837350556, 1.1202823644517155
3.2721609837350556, 1.0618774619646878
3.2721609837350556, 1.0034725594776592
3.2721609837350556, 0.9450676569906316
3.2721609837350556, 0.886662754503603
3.2721609837350556, 0.8282578520165753
3.2721609837350556, 0.7698529495295467
3.2721609837350556, 0.71144804704252
3.2721609837350556, 0.6530431445554914
3.2721609837350556, 0.5946382420684628
3.2721609837350556, 0.5362333395814343
3.2721609837350556, 0.4778284370944075
3.2721609837350556, 0.4194235346073789
3.2721609837350556, 0.36101863212035035
3.2721609837350556, 0.30261372963332356
3.2721609837350556, 0.244208827146295
3.2721609837350556, 0.18580392465926643
3.2721609837350556, 0.12739902217223964
3.2721609837350556, 0.06899411968521107
3.2721609837350556, -0.01463108160303328
3.336128257887516, 1.176833143050266
3.336128257887516, 1.1184282405632384
3.336128257887516, 1.0600233380762107
3.336128257887516, 1.0016184355891822
3.336128257887516, 0.9432135331021545
3.336128257887516, 0.8848086306151259
3.336128257887516, 0.8264037281280983
3.336128257887516, 0.7679988256410697
3.336128257887516, 0.709593923154042
3.336128257887516, 0.6511890206670135
3.336128257887516, 0.5927841181799867
3.336128257887516, 0.5343792156929581
3.336128257887516, 0.47597431320592953
3.336128257887516, 0.41756941071890097
3.336128257887516, 0.3591645082318742
3.336128257887516, 0.3007596057448456
3.336128257887516, 0.24235470325781705
3.336128257887516, 0.18394980077078849
3.336128257887516, 0.1255448982837617
3.336128257887516, 0.06713999579673313
3.336128257887516, -0.016485205491511223
3.400095532039977, 1.174979019161789
3.400095532039977, 1.1165741166747614
3.4041214443992196, 1.0531514103776587
3.394280325298844, 0.9999328684178392
3.394280325298844, 0.9415279659308116
3.394280325298844, 0.883123063443783
3.394280325298844, 0.8247181609567553
3.394280325298844, 0.7663132584697268
3.394280325298844, 0.7079083559826991
3.394280325298844, 0.6495034534956705
3.400095532039977, 0.5880338834243837
3.400095532039977, 0.5296289809373551
3.4041214443992196, 0.4642012748091666
3.394280325298844, 0.41588384354755803
3.394280325298844, 0.35747894106053124
3.394280325298844, 0.2990740385735027
3.394280325298844, 0.2406691360864741
3.394280325298844, 0.18226423359944555
3.394280325298844, 0.12385933111241876
3.394280325298844, 0.06545442862539019
3.394280325298844, -0.018170772662854162
3.464062806192434, 1.173124895273312
3.464062806192434, 1.1147199927862843
3.4616398033836298, 1.0537305539698636
3.464062806192434, 0.5731472606338421
3.464062806192434, 0.5147423581468136
3.464062806192434, 0.44040884589059637
3.5280300803448945, 1.171270771384835
3.5280300803448945, 1.1128658688978073
3.5280300803448945, 1.0544609664107796
3.5280300803448945, 0.571293136745366
3.5280300803448945, 0.5128882342583374
3.5280300803448945, 0.4385547220021202
3.591997354497355, 1.1694166474963579
3.591997354497355, 1.1110117450093302
3.591997354497355, 1.0526068425223025
3.591997354497355, 0.569439012856888
3.591997354497355, 0.5110341103698595
3.591997354497355, 0.43670059811364226
3.655964628649812, 1.1675625236078808
3.655964628649812, 1.1091576211208531
3.655964628649812, 1.0507527186338255
3.655964628649812, 0.5675848889684119
3.655964628649812, 0.5091799864813833
3.655964628649812, 0.4348464742251661
3.719931902802273, 1.1657083997194038
3.719931902802273, 1.107303497232376
3.719931902802273, 1.0488985947453484
3.719931902802273, 0.5657307650799339
3.719931902802273, 0.5073258625929054
3.719931902802273, 0.43299235033668815
3.78389917695473, 1.1638542758309267
3.78389917695473, 1.105449373343899
3.7893509332745445, 1.0369310678288137
3.78389917695473, 0.5638766411914578
3.78389917695473, 0.5054717387044292
3.78389917695473, 0.431138226448212
3.8478664511071905, 1.1620001519424497
3.8478664511071905, 1.103595249455422
3.8478664511071905, 1.028537709482424
3.849251024140795, 0.5417555786951684
3.8478664511071905, 0.4577625260864675
3.8454434482983864, 0.42028387618441876
3.911833725259651, 1.1533884360306805
3.911833725259651, 1.0949835335436529
3.911833725259651, 1.01763323913418
3.9144505682931587, 0.5624818343571718
3.911833725259651, 0.481490714857598
3.907807812900405, 0.4334688472101256
3.975800999412108, 1.139467183529181
3.975800999412108, 1.0810622810421533
3.9708165364911387, 1.014130761895026
3.976091759749167, 0.6010476112374938
3.975800999412108, 0.5192167728198349
3.9773517212097467, 0.45703415675727577
3.997244574270038, 0.9653655729117867
4.021676519258822, 0.459348065913046
4.033268924853893, 0.9092642272511098
4.030754703115811, 0.6711419220577834
4.039768273564569, 1.1158922281372634
4.039768273564569, 1.0574873256502348
4.042094356261021, 0.5579855839276142
4.045583480305702, 0.48347508711840526
4.05682621333856, 0.8322385998195632
4.05682621333856, 0.7393217094992917
4.062198356708937, 1.0006733139966792
4.09723619900635, 0.9308345294937928
4.0966280728112, 0.6412394922250595
4.103735547717029, 1.0807328292768448
4.107761460076272, 0.561024142901493
4.098308021425304, 0.49635843886470177
4.120793487491017, 0.8510916686310335
4.115365961199295, 0.7811309262396229
4.115365961199295, 0.7227260237525943
4.126165630861397, 1.0196780838535702
4.16120347315881, 0.9380378503760314
4.16059534696366, 0.6488245444961027
4.171728734228733, 0.5777533970770694
4.1531648050166545, 0.529722836382124
4.184760761643478, 0.8623344016638894
4.179333235351752, 0.7903785606751264
4.179333235351752, 0.7319736581880978
4.176425631981186, 1.017747206459969
4.2200396825396815, 0.9301082483449647
4.221407966478772, 0.654731190502087
4.20550166568685, 0.5861682670324662
4.238454503886601, 0.8329914864894308
4.23748530276308, 0.7648805263740854
4.2345776993925135, 0.7167365140426067
4.442402111736328, 0.5854960467915138
4.43859453589392, 0.49888398034309667
4.4468327454438565, 0.4384704436435527
4.454974034881442, 0.6785794872013344
4.455555555555556, 0.37450316949109386
4.473970376902475, 0.7403274312448591
4.473485776340713, 0.3264188543302673
4.491028316676463, 0.26516042708608545
4.498781925664641, 0.8043846023131236
4.506369385888785, 0.5823777475245286
4.504984812855181, 0.4976032046818428
4.523325080269522, 0.6735487174899415
4.519693865200399, 0.42511480258591483
4.5198862801293345, 0.20737918445245462
4.527882189398394, 0.8565701130977237
4.537937651054932, 0.33778027938477173
4.555867871840093, 0.7293255938535737
4.555140970997453, 0.15674632684453904
4.568305952925293, 0.7995376602693067
4.566899661099004, 0.9162841187647022
4.567789045659417, 0.2657672312677697
4.5692428473447, 0.5711119382744467
4.571278169704094, 0.49167537140698947
4.5859131066692775, 0.6521301290043482
4.582292855413769, 0.4104949861497662
4.596735852548608, 0.09328267441115834
4.609658534195571, 0.8522672691072017
4.613331296347862, 0.9752171308422559
4.613535338689658, 0.3315773921942302
4.613331296347862, 0.20980551403857284
4.623905790711344, 0.749255318695738
4.629648307368214, 0.5771926218450645
4.627104154418969, 0.48929029385953804
4.629284856946892, 0.4331819766434659
4.6424351540092275, 0.6673857888498276
4.653411042057424, 0.03856561898730426
4.658764724454024, 0.1367632842352542
4.6691951746405, 0.900022880964082
4.672333540183335, 0.8195303597738457
4.675010381381632, 1.0209623255079272
4.673625808348028, 0.9601956223534334
4.656180188124633, 0.37222765380978196
4.667810601606895, 0.304046461728964
4.673625808348028, 0.24702832132381403
4.678610271269001, 0.19585712885977635
4.677855049614308, 0.7563799046622464
4.7143322555359575, 0.04939557048387044
4.72462069823181, -0.019462500581662212
4.730067520835494, 0.1463566952993407
4.734394718792863, 0.8883483216749468
4.706578646547779, 0.8238472845848959
4.738977655534093, 1.0585504734288698
4.737593082500489, 0.9740287656618856
4.737593082500489, 0.9371033521060372
4.717239858906524, 0.21825109270761622
4.784114736429551, 0.039239645193083206
4.780843682637663, -0.04823971078038802
4.787022339800117, 0.12384247544070526
4.779961017328741, 0.921842949322631
4.804177199686457, 1.0888844619675284
4.801560356652949, 1.0078933424679546
4.805921761708799, 0.9613386475915009
4.848082010582008, 0.07447987466103534
4.848082010582008, 0.01607497217400855
4.8430975476610385, -0.04916714896729779
4.869200392957701, 1.111437572505249
4.865527630805406, 1.0340349569616896
4.860543167884437, 0.9836009265040788
4.870512093726376, -0.08959367160712794
4.912049284734469, 0.03980316094513725
4.912049284734469, -0.018601741541889538
4.930879477991471, 1.1220120774299271
4.929494904957867, 1.0379730548074626
4.927071902149063, 0.9993078039251335
4.932286204193609, -0.09328048860147398
4.976016558886929, 0.019124316420347398
4.996079022143835, 1.128453151314801
4.9934621791103275, 1.048186059532009
4.9786010952163195, 1.0115305069828846
4.998446642031297, -0.030725238147979894
4.9934621791103275, -0.11725722191368781
5.057429453262785, 1.1587975743168997
5.057429453262785, 1.100392671829871
5.057429453262785, 1.026059159573654
5.057429453262785, 0.007110819490046438
5.057429453262785, -0.05129408299698035
5.059464775622182, -0.12404546061282318
5.121396727415245, 1.15549539499486
5.121396727415245, 1.0970904925078315
5.119361405055848, 1.0247949841951458
5.126848483735056, -0.010317083123878135
5.121396727415245, -0.07776514925602207
5.116265662643656, -0.13109509742943892
5.185364001567702, 1.1464009939385686
5.185364001567702, 1.08799609145154
5.185364001567702, 1.0128178801924115
5.186748574601307, -0.009509164692493854
5.185364001567702, -0.09361714233560647
5.182940998758898, -0.13240306450406436
5.249331275720163, 1.134410482015154
5.249331275720163, 1.0760055795281254
5.246714432686655, 1.0009273530489313
5.250715848753767, 0.015437229443378442
5.249331275720163, -0.06892358327543313
5.246908272911359, -0.11412519548981592
5.304284979423866, 0.9751002500660322
5.3132985498726235, 1.116145063212965
5.3132985498726235, 1.0577401607259382
5.314683122906228, 0.0593462542568588
5.3132985498726235, -0.02540530357894788
5.314960037512947, -0.0844617215586645
5.368252253576326, 1.0035104847390155
5.362000906329609, 0.9107084236822915
5.377265824025081, 1.0896739969539233
5.378650397058685, 0.11791971346102059
5.377265824025081, 0.033076215597688474
5.377265824025081, -0.02532868688934009
5.373565237917088, -0.07011114196433432
5.405657715761201, 0.8651122824629356
5.4231033359845995, 0.18779685996185513
5.432219527728783, 1.0290004742876464
5.429602684695276, 0.9457648688660516
5.435054441015087, 0.7919470479676649
5.446660624469267, 0.25338954967287464
5.446660624469267, 0.11321778370400892
5.441233098177541, 0.03991042431058567
5.437654509413768, -0.019708852706703084
5.41797227121301, -0.062227284603824984
5.463663181321909, 0.31608020735580133
5.469624989913662, 0.8816853737976391
5.493569958847736, 1.0172788869447507
5.493569958847736, 0.9588739844577221
5.493569958847736, 0.7885206059521694
5.505200372330002, 0.21134026730511124
5.505200372330002, 0.15293536481808268
5.510184835250971, 0.0837669119654798
5.493985330757816, 0.020142771130043258
5.533113364687438, 0.7667051528370648
5.5226459925534, 0.32764440212776513
5.5226459925534, 0.2692394996407348
5.532095703507739, 0.8871947616420588
5.5517220262590605, 0.9615862152697927
5.567616924684824, 0.8006594988644569
5.569167646482459, 0.2094861434166333
5.572802150695669, 0.13687243641492763
5.550429758094367, 0.07640593310808796
5.596951412023426, 0.7647072875259209
5.586613266705857, 0.3257902782392872
5.586613266705857, 0.2673853757522586
5.5928161538964005, 0.8813419807993998
5.622033162310938, 0.20095487502895182
5.604058886929256, 0.1527246689216657
5.630227317264353, 0.8092867935031132
5.641857730746619, 0.7539296071577688
5.644183813443071, 0.3158917850255758
5.6331349206349195, 0.2660369220151839
