sum=10022429073.341873
The process took 0.6249 seconds.
sum=10022429073.341873
The process took 0.6382 seconds.
sum=10022429073.341873
The process took 0.6476 seconds.
sum=10022429073.341873
The process took 0.6169 seconds.
sum=10022429073.341873
The process took 0.633 seconds.
sum=10022429073.341873
The process took 0.6358 seconds.
