/var/spool/slurmd/job37203504/slurm_script: line 20: account: command not found


Batch Job Summary Report (version 21.01.1) for Job "summing" (37203504) on daint

Job information (1/2)
-----------------------------------------------------------------------------------------------------
             Submit            Eligible               Start                 End    Elapsed Time limit
------------------- ------------------- ------------------- ------------------- ---------- ----------
2022-03-17T08:49:48 2022-03-17T08:49:48 2022-03-17T08:49:50 2022-03-17T08:50:12   00:00:22   00:05:00
-----------------------------------------------------------------------------------------------------

Job information (2/2)
-------------------------------------------------------------
    Username      Account    Partition   NNodes        Energy
------------ ------------ ------------ -------- -------------
    mwoolley         uzh8        debug        1      1.610 kJ

