-O0
sum=10022429073.341873
The process took 6.276 seconds.

-O1
sum=10022429073.341873
The process took 0.6567 seconds.

-O2
sum=10022429073.341873
The process took 0.6103 seconds.

-O3
sum=10022429073.341873
The process took 0.6336 seconds.


We can see a tenfold increase when using another flag in comparison to -O0 but the differences between -O1, -O2 and -O3 could be due to chance.
